Generado 2
,DEMANDA,SET,CARGA,n_EC1,PEC_1,PEA1_1,PCA1_1,PEA1_2,PCA1_2,PEA1_3,PCA1_3,F1_1,F2_1,F3_1,n_EC2,PEC_2,PEA2_1,PCA2_1,PEA2_2,PCA2_2,PEA2_3,PCA2_3,F1_2,F2_2,F3_2,n_EC3,PEC_3,PEA3_1,PCA3_1,PEA3_2,PCA3_2,PEA3_3,PCA3_3,F1_3,F2_3,F3_3,n_EC4,PEC_4,PEA4_1,PCA4_1,PEA4_2,PCA4_2,PEA4_3,PCA4_3,F1_4,F2_4,F3_4,INTERFERENCIA_E1,INTERFERENCIA_E2,INTERFERENCIA_E3,INTERFERENCIA_E4,INTERFERENCIA_TOTAL
1,2,ANC,0.6,oso.png,1,8,2,23,19,10,9,FNON.png,FNEN.png,FON.png,gato.png,17,9,4,22,23,11,16,FNN.png,FEN.png,FSN.png,null,null,null,null,null,null,null,null,null,null,null,null,null,null,null,null,null,null,null,null,null,null,4,9,null,null,13,
2,2,ANC,0.6,burro.png,19,18,12,11,12,5,4,FNON.png,FEN.png,FON.png,pato.png,24,14,15,7,3,17,12,FEN.png,FNEN.png,FNN.png,null,null,null,null,null,null,null,null,null,null,null,null,null,null,null,null,null,null,null,null,null,null,11,4,null,null,15,
3,2,ANC,1.6,rana.png,7,9,5,16,17,2,3,FNEN.png,FEN.png,FEN.png,silla.png,20,3,4,23,22,19,25,FEN.png,FON.png,FSEN.png,null,null,null,null,null,null,null,null,null,null,null,null,null,null,null,null,null,null,null,null,null,null,11,5,null,null,16,
4,2,ANC,1.6,oso.png,10,21,22,6,1,16,21,FEN.png,FNN.png,FSN.png,cama.png,11,22,16,1,6,24,19,FNON.png,FSN.png,FNN.png,null,null,null,null,null,null,null,null,null,null,null,null,null,null,null,null,null,null,null,null,null,null,1,6,null,null,7,
5,3,ANC,0.6,zebra.png,25,11,12,20,24,23,22,FEN.png,FSON.png,FON.png,pina.png,4,19,14,21,22,9,15,FNN.png,FEN.png,FSEN.png,casco.png,14,10,9,1,2,6,12,FON.png,FEN.png,FSEN.png,null,null,null,null,null,null,null,null,null,null,null,9,10,6,null,25,
6,3,ANC,0.6,dedo.png,10,19,25,6,7,14,20,FSEN.png,FEN.png,FSEN.png,vaca.png,23,9,8,16,12,4,8,FON.png,FNEN.png,FSON.png,dado.png,16,20,25,1,2,24,19,FSN.png,FEN.png,FNN.png,null,null,null,null,null,null,null,null,null,null,null,12,8,0,null,20,
7,3,ANC,1.6,lupa.png,8,25,19,15,19,1,2,FNON.png,FSON.png,FEN.png,pala.png,6,10,15,14,18,16,11,FSN.png,FSON.png,FNN.png,mano.png,5,4,3,18,17,21,16,FON.png,FON.png,FNN.png,null,null,null,null,null,null,null,null,null,null,null,20,8,3,null,31,
8,3,ANC,1.6,pollo.png,11,14,9,15,10,7,2,FNN.png,FNN.png,FNN.png,dado.png,18,5,9,8,2,24,19,FSON.png,FNON.png,FNN.png,nido.png,15,6,7,25,20,22,23,FEN.png,FNN.png,FEN.png,null,null,null,null,null,null,null,null,null,null,null,11,14,4,null,29,
9,2,A,0.6,burro.png,7,11,16,14,19,6,1,FSN.png,FSN.png,FNN.png,pala.png,14,8,2,16,22,3,9,FNON.png,FSEN.png,FSEN.png,null,null,null,null,null,null,null,null,null,null,null,null,null,null,null,null,null,null,null,null,null,null,17,7,null,null,24,
10,2,A,0.6,mesa.png,6,1,2,16,17,13,9,FEN.png,FEN.png,FNEN.png,huevo.png,7,15,10,9,5,18,23,FNN.png,FNEN.png,FSN.png,null,null,null,null,null,null,null,null,null,null,null,null,null,null,null,null,null,null,null,null,null,null,8,2,null,null,10,
11,2,A,1.6,nido.png,19,12,17,16,22,11,16,FSN.png,FSEN.png,FSN.png,cama.png,4,1,6,13,18,3,8,FSN.png,FSN.png,FSN.png,null,null,null,null,null,null,null,null,null,null,null,null,null,null,null,null,null,null,null,null,null,null,8,5,null,null,13,
12,2,A,1.6,fresa.png,12,11,6,2,8,20,24,FNN.png,FSEN.png,FSON.png,lupa.png,25,14,10,23,17,6,7,FNEN.png,FNON.png,FEN.png,null,null,null,null,null,null,null,null,null,null,null,null,null,null,null,null,null,null,null,null,null,null,16,2,null,null,18,
13,3,A,0.6,dado.png,19,1,6,20,14,22,23,FSN.png,FNON.png,FEN.png,cono.png,3,21,16,13,12,15,10,FNN.png,FON.png,FNN.png,queso.png,1,5,10,11,12,25,24,FSN.png,FEN.png,FON.png,null,null,null,null,null,null,null,null,null,null,null,19,8,2,null,29,
14,3,A,0.6,nido.png,22,4,5,21,17,8,14,FEN.png,FNEN.png,FSEN.png,perro.png,23,16,17,18,14,3,4,FEN.png,FNEN.png,FEN.png,cama.png,8,20,19,10,4,2,7,FON.png,FNON.png,FSN.png,null,null,null,null,null,null,null,null,null,null,null,13,9,9,null,31,
15,3,A,1.6,nido.png,21,9,10,18,22,3,2,FEN.png,FSON.png,FON.png,perro.png,2,4,8,23,17,13,14,FSON.png,FNON.png,FEN.png,llave.png,10,22,23,17,18,19,24,FEN.png,FEN.png,FSN.png,null,null,null,null,null,null,null,null,null,null,null,13,6,2,null,21,
16,3,A,1.6,reloj.png,9,1,2,23,19,14,15,FEN.png,FNEN.png,FEN.png,burro.png,14,6,7,18,22,4,8,FEN.png,FSON.png,FSON.png,lupa.png,15,8,3,17,16,2,3,FNN.png,FON.png,FEN.png,null,null,null,null,null,null,null,null,null,null,null,20,13,3,null,36,
17,2,B,0.6,queso.png,24,25,20,6,11,1,7,FNN.png,FSN.png,FSEN.png,cono.png,5,4,10,3,2,12,18,FSEN.png,FON.png,FSEN.png,null,null,null,null,null,null,null,null,null,null,null,null,null,null,null,null,null,null,null,null,null,null,7,5,null,null,12,
18,2,B,0.6,moto.png,18,12,6,8,12,7,8,FNON.png,FSON.png,FEN.png,vaca.png,25,23,17,14,19,15,19,FNON.png,FSN.png,FSON.png,null,null,null,null,null,null,null,null,null,null,null,null,null,null,null,null,null,null,null,null,null,null,21,7,null,null,28,
19,2,B,1.6,queque.png,17,24,18,5,4,3,9,FNON.png,FON.png,FSEN.png,mundo.png,8,19,15,7,6,1,7,FNEN.png,FON.png,FSEN.png,null,null,null,null,null,null,null,null,null,null,null,null,null,null,null,null,null,null,null,null,null,null,8,8,null,null,16,
20,2,B,1.6,queso.png,6,22,16,19,25,18,12,FNON.png,FSEN.png,FNON.png,gallo.png,9,25,20,2,3,14,18,FNN.png,FEN.png,FSON.png,null,null,null,null,null,null,null,null,null,null,null,null,null,null,null,null,null,null,null,null,null,null,8,7,null,null,15,
21,3,B,0.6,coco.png,9,8,12,23,24,19,14,FSON.png,FEN.png,FNN.png,uva.png,24,12,17,16,12,6,11,FSN.png,FNEN.png,FSN.png,lego.png,25,7,2,10,14,13,17,FNN.png,FSON.png,FSON.png,null,null,null,null,null,null,null,null,null,null,null,18,6,2,null,26,
22,3,B,0.6,perro.png,15,19,18,1,2,8,7,FON.png,FEN.png,FON.png,lente.png,9,25,20,18,22,21,22,FNN.png,FSON.png,FEN.png,taza.png,11,17,16,6,12,7,8,FON.png,FSEN.png,FEN.png,null,null,null,null,null,null,null,null,null,null,null,9,7,11,null,27,
23,3,B,1.6,mundo.png,7,6,1,11,6,25,20,FNN.png,FNN.png,FNN.png,casco.png,4,12,8,22,21,14,18,FNEN.png,FON.png,FSON.png,queque.png,6,3,2,24,25,20,19,FON.png,FEN.png,FON.png,null,null,null,null,null,null,null,null,null,null,null,19,7,3,null,29,
24,3,B,1.6,moto.png,4,10,9,6,11,9,10,FON.png,FSN.png,FEN.png,huevo.png,5,15,14,12,7,23,24,FON.png,FNN.png,FEN.png,vaca.png,11,7,12,20,25,8,3,FSN.png,FSN.png,FNN.png,null,null,null,null,null,null,null,null,null,null,null,18,4,6,null,28,
25,2,C,0.6,reloj.png,24,15,20,23,18,16,12,FSN.png,FNN.png,FNEN.png,chancho.png,1,3,8,7,8,21,17,FSN.png,FEN.png,FNEN.png,null,null,null,null,null,null,null,null,null,null,null,null,null,null,null,null,null,null,null,null,null,null,9,5,null,null,14,
26,2,C,0.6,avion.png,15,14,19,21,16,3,4,FSN.png,FNN.png,FEN.png,lupa.png,14,18,12,6,7,4,8,FNON.png,FEN.png,FSON.png,null,null,null,null,null,null,null,null,null,null,null,null,null,null,null,null,null,null,null,null,null,null,9,7,null,null,16,
27,2,C,1.6,nido.png,12,16,17,9,5,1,7,FEN.png,FNEN.png,FSEN.png,fresa.png,10,8,14,18,23,11,16,FSEN.png,FSN.png,FSN.png,null,null,null,null,null,null,null,null,null,null,null,null,null,null,null,null,null,null,null,null,null,null,18,4,null,null,22,
28,2,C,1.6,disco.png,4,17,18,9,3,6,7,FEN.png,FNON.png,FEN.png,globo.png,2,20,14,12,16,3,7,FNON.png,FSON.png,FSON.png,null,null,null,null,null,null,null,null,null,null,null,null,null,null,null,null,null,null,null,null,null,null,10,6,null,null,16,
29,3,C,0.6,burro.png,18,14,20,17,22,23,24,FSEN.png,FSN.png,FEN.png,taza.png,16,5,10,7,8,9,5,FSN.png,FEN.png,FNEN.png,llave.png,7,2,1,6,1,22,21,FON.png,FNN.png,FON.png,null,null,null,null,null,null,null,null,null,null,null,19,7,8,null,34,
30,3,C,0.6,cama.png,9,5,4,14,8,22,16,FON.png,FNON.png,FNON.png,fresa.png,16,15,14,11,7,1,2,FON.png,FNEN.png,FEN.png,nido.png,4,12,17,23,24,7,6,FSN.png,FEN.png,FON.png,null,null,null,null,null,null,null,null,null,null,null,17,10,2,null,29,
31,3,C,1.6,mundo.png,5,11,17,19,23,12,7,FSEN.png,FSON.png,FNN.png,cama.png,16,4,8,7,2,14,15,FSON.png,FNN.png,FEN.png,casco.png,18,1,2,17,11,20,15,FEN.png,FNON.png,FNN.png,null,null,null,null,null,null,null,null,null,null,null,6,6,7,null,19,
32,3,C,1.6,llave.png,15,11,6,23,17,16,17,FNN.png,FNON.png,FEN.png,foco.png,23,19,25,13,14,24,19,FSEN.png,FEN.png,FNN.png,cama.png,25,14,20,4,3,5,10,FSEN.png,FON.png,FSN.png,null,null,null,null,null,null,null,null,null,null,null,19,11,3,null,33,
